<?xml version="1.0" encoding="UTF-8"?>
<svg width="484px" height="379px" viewBox="0 0 484 379" version="1.1" xmlns="http://www.w3.org/2000/svg" xmlns:xlink="http://www.w3.org/1999/xlink">
    <!-- Generator: sketchtool 52.4 (67378) - http://www.bohemiancoding.com/sketch -->
    <title>6E18FB47-3BAD-44CC-9A6A-0464F03C0B63</title>
    <desc>Created with sketchtool.</desc>
    <g id="Page-1" stroke="none" stroke-width="1" fill="none" fill-rule="evenodd">
        <g id="OPPO-F0-mau-xanh_pre" transform="translate(-835.000000, -1194.000000)">
            <g id="-g-Group-7" transform="translate(835.000000, 1194.000000)">
                <g id="Group-8" transform="translate(41.800000, 26.125000)" fill="#1B1B1D">
                    <g id="Group-6">
                        <text id="Xài-thả-ga" font-family="Roboto-Bold, Roboto" font-size="23.826" font-weight="bold" letter-spacing="1.04499999">
                            <tspan x="25.3766617" y="22">Xài thả g</tspan>
                            <tspan x="128.631438" y="22">a</tspan>
                        </text>
                        <text id="Dung-lượng-10.000mAh" font-family="Roboto-Light, Roboto" font-size="23.826" font-weight="300" letter-spacing="1.04499999">
                            <tspan x="20.84775" y="55.7535">Dung lượng 10.000mA</tspan>
                            <tspan x="273.925319" y="55.7535">h</tspan>
                        </text>
                        <circle id="Oval" cx="3.474625" cy="14.394875" r="3.474625"></circle>
                    </g>
                    <g id="Group-6-Copy" transform="translate(0.000000, 132.715000)">
                        <text id="Có-thể-tích-hợp-sạc" font-family="Roboto-Bold, Roboto" font-size="23.826" font-weight="bold" letter-spacing="1.04499999">
                            <tspan x="20.84775" y="22">Có thể tích hợp sạc nhanh VOO</tspan>
                            <tspan x="382.901879" y="22">C</tspan>
                        </text>
                        <text id="5-phút-sạc-2-giờ-liê" font-family="Roboto-Light, Roboto" font-size="23.826" font-weight="300" letter-spacing="1.04499999">
                            <tspan x="20.84775" y="55.7535">5 phút sạc 2 giờ liên lạ</tspan>
                            <tspan x="277.288913" y="55.7535">c</tspan>
                        </text>
                        <circle id="Oval" cx="3.474625" cy="14.394875" r="3.474625"></circle>
                    </g>
                    <g id="Group-6-Copy-2" transform="translate(0.000000, 250.800000)">
                        <text id="Thời-trang-–-Tiện-lợ" font-family="Roboto-Bold, Roboto" font-size="23.826" font-weight="bold" letter-spacing="1.04499999">
                            <tspan x="20.84775" y="22">Thời trang – Tiện lợi</tspan>
                            <tspan x="258.983452" y="22"> </tspan>
                        </text>
                        <text id="Thiết-kế-kim-loại-nh" font-family="Roboto-Light, Roboto" font-size="23.826" font-weight="300" letter-spacing="1.04499999">
                            <tspan x="20.84775" y="55.7535">Thiết kế kim loại nhỏ gọn cùng</tspan>
                            <tspan x="20.84775" y="83.7535">sắc màu thời thượn</tspan>
                            <tspan x="241.620328" y="83.7535">g</tspan>
                        </text>
                        <circle id="Oval" cx="3.474625" cy="14.394875" r="3.474625"></circle>
                    </g>
                </g>
                <rect id="Rectangle" stroke="#1A494B" stroke-width="1.254" x="0.765683849" y="267.102" width="481.759793" height="111.257667" rx="13.585"></rect>
                <rect id="Rectangle" stroke="#1A494B" stroke-width="1.254" x="0.627" y="134.387" width="481.759793" height="111.257667" rx="13.585"></rect>
                <rect id="Rectangle" stroke="#1A494B" stroke-width="1.254" x="0.765683849" y="0.627" width="481.759793" height="111.257667" rx="13.585"></rect>
            </g>
        </g>
    </g>
</svg>